{
  "hosting": [
    {
      "target": "frontend",
      "public": "packages/frontend/build",
      "ignore": [
        "firebase.json",
        "**/.*",
        "**/node_modules/**"
      ]
    },
    {
      "target": "backend-api-hosting",
      "public": "packages/backend-api-hosting",
      "rewrites": [
        {
          "source": "**",
          "function": "backendAPI-app"
        }
      ],
      "ignore": [
        "firebase.json",
        "**/.*",
        "**/node_modules/**"
      ]
    }
  ],
  "functions": {
    "source": "packages/functions"
  },
  "emulators": {
    "emulators": {
      "functions": {
        "port": 5001,
        "host": "0.0.0.0"
      },
      "hosting": {
        "port": 5000,
        "host": "0.0.0.0"
      },
      "ui": {
        "enabled": true
      }
    }
  }
}